…
}

# test function
rankall(`heart attack`, 20)
```

```
## # A tibble: 54 x 2
##                               hospital State
##                                  <chr> <chr>
##  1                                <NA>    AK
##  2      D W MCMILLAN MEMORIAL HOSPITAL    AL
##  3   ARKANSAS METHODIST MEDICAL CENTER    AR
##  4 JOHN C LINCOLN DEER VALLEY HOSPITAL    AZ
##  5               SHERMAN OAKS HOSPITAL    CA
##  6            SKY RIDGE MEDICAL CENTER    CO
##  7             MIDSTATE MEDICAL CENTER    CT
##  8                                <NA>    DC
##  9                                <NA>    DE
## 10      SOUTH FLORIDA BAPTIST HOSPITAL    FL
## # ... with 44 more rows
```
…
